<svg width="32" height="32" viewBox="0 0 32 32" fill="none" xmlns="http://www.w3.org/2000/svg">
<path d="M31.2885 7.91509V7.84744C31.2547 7.77979 31.2547 7.71214 31.2209 7.64449V7.61066C31.1871 7.54301 31.1194 7.47536 31.0856 7.44154L31.0518 7.40771C31.0179 7.37389 30.9503 7.34006 30.9165 7.30624L30.8826 7.27241H30.8488L30.815 7.23859L16.4393 0.101476C16.1687 -0.0338252 15.8304 -0.0338252 15.526 0.101476L10.689 2.50306L25.1324 9.91078L25.1662 9.9446C25.2 9.9446 25.2 9.97843 25.2338 9.97843C25.2677 10.0123 25.2677 10.0461 25.3015 10.0799V18.0288C25.3015 18.1641 25.2338 18.2656 25.1324 18.3332L22.2234 19.8554C22.0543 19.9569 21.8513 19.8892 21.7498 19.7201C21.716 19.6863 21.716 19.6186 21.716 19.5509V11.8726L7.10354 4.32962L7.06972 4.2958L1.21796 7.20476L1.18414 7.23859H1.15031L1.11649 7.27241C1.08266 7.30624 1.01501 7.34006 0.981184 7.37389L0.947359 7.40771C0.879709 7.47536 0.845884 7.54301 0.778233 7.61066V7.64449C0.744408 7.71214 0.710583 7.77979 0.710583 7.84744V7.91509C0.710583 7.98274 0.676758 8.01657 0.676758 8.08422V23.8806C0.676758 24.2526 0.879709 24.6247 1.25179 24.7938L15.4922 31.8971C15.6951 31.9986 15.9319 32.0324 16.1687 31.9648L16.2363 31.931C16.304 31.931 16.3378 31.8971 16.4055 31.8633L30.7473 24.76C31.0856 24.5909 31.3224 24.2526 31.3224 23.8467V8.08422C31.2885 8.01657 31.2885 7.98274 31.2885 7.91509Z" fill="#1AC19D"/>
</svg>
